0049695883

2723502296

5270352684

3698894127

7945614807

1897650189
5966517419
1501061268
2578148133

7325890637

7563796951

9188585946

4750053142

0637560426

1186214779

0021458509

1799074726

8526853518

8388496618

9051662432

0112860623

7560695839

3434742208

0584253670

9466291569

6885016126

1069175302

7603066092

8419264124

8065348621

2686212068

1001915185

4312642103
5194642628

1889353107

1425366998

6663087307

2336799942

2725075358

8211947915

2823744873

2903446122

6396075490

5573865015

0446155952

5593037726

7331117428

7229826104

0727328614

6534265035

3693845112

4347634400

1631405497
5998162958
3014289054

7998666774

3235105599
2481794374

1111415398

3253046823
8078317965

1843499716

1528884472
7400972235

8791501914

2899465477

7007970593

7389457086

5428656065

9409007203

4975611096

3884944425

2608274679

2285318890

0702756401

0852920498

9964768898

8883109690

7014608144

4917669803

5351526012

9702361180

3610557749

6850103036
0491192836

4529489365

7527158625

1222968544

1196680648

5934767445

7697608840

2042513268

7084058843
1407862325

2115437125

8597898627

0472329555

1756680337

1123109928

9667214554
